%YAML 1.1
%TAG !u! tag:unity3d.com,2011:
--- !u!74 &7400000
AnimationClip:
  m_ObjectHideFlags: 0
  m_CorrespondingSourceObject: {fileID: 0}
  m_PrefabInstance: {fileID: 0}
  m_PrefabAsset: {fileID: 0}
  m_Name: Ani_Conjure
  serializedVersion: 6
  m_Legacy: 0
  m_Compressed: 0
  m_UseHighQualityCurve: 1
  m_RotationCurves: []
  m_CompressedRotationCurves: []
  m_EulerCurves: []
  m_PositionCurves: []
  m_ScaleCurves: []
  m_FloatCurves: []
  m_PPtrCurves:
  - curve:
    - time: 0
      value: {fileID: -7170546641817121654, guid: 93c7c73ae5a75324b8d758491225eba4,
        type: 3}
    - time: 0.083333336
      value: {fileID: 6930845406912802021, guid: 93c7c73ae5a75324b8d758491225eba4,
        type: 3}
    - time: 0.16666667
      value: {fileID: -6969696073654175949, guid: 93c7c73ae5a75324b8d758491225eba4,
        type: 3}
    - time: 0.25
      value: {fileID: -3704962309061127128, guid: 93c7c73ae5a75324b8d758491225eba4,
        type: 3}
    - time: 0.33333334
      value: {fileID: 7667323557245715885, guid: 93c7c73ae5a75324b8d758491225eba4,
        type: 3}
    - time: 0.41666666
      value: {fileID: 2700202082732843136, guid: 93c7c73ae5a75324b8d758491225eba4,
        type: 3}
    - time: 0.5
      value: {fileID: -6043708744646355035, guid: 93c7c73ae5a75324b8d758491225eba4,
        type: 3}
    - time: 0.5833333
      value: {fileID: 7708030409644964934, guid: 93c7c73ae5a75324b8d758491225eba4,
        type: 3}
    - time: 0.6666667
      value: {fileID: 9014514698006725208, guid: 93c7c73ae5a75324b8d758491225eba4,
        type: 3}
    - time: 0.75
      value: {fileID: 5186194980164204250, guid: 93c7c73ae5a75324b8d758491225eba4,
        type: 3}
    - time: 0.8333333
      value: {fileID: 6023357890614437883, guid: 93c7c73ae5a75324b8d758491225eba4,
        type: 3}
    - time: 0.9166667
      value: {fileID: -5217175494606383987, guid: 93c7c73ae5a75324b8d758491225eba4,
        type: 3}
    - time: 1
      value: {fileID: -3696452833626936702, guid: 93c7c73ae5a75324b8d758491225eba4,
        type: 3}
    attribute: m_Sprite
    path: 
    classID: 212
    script: {fileID: 0}
  m_SampleRate: 12
  m_WrapMode: 0
  m_Bounds:
    m_Center: {x: 0, y: 0, z: 0}
    m_Extent: {x: 0, y: 0, z: 0}
  m_ClipBindingConstant:
    genericBindings:
    - serializedVersion: 2
      path: 0
      attribute: 0
      script: {fileID: 0}
      typeID: 212
      customType: 23
      isPPtrCurve: 1
    pptrCurveMapping:
    - {fileID: -7170546641817121654, guid: 93c7c73ae5a75324b8d758491225eba4, type: 3}
    - {fileID: 6930845406912802021, guid: 93c7c73ae5a75324b8d758491225eba4, type: 3}
    - {fileID: -6969696073654175949, guid: 93c7c73ae5a75324b8d758491225eba4, type: 3}
    - {fileID: -3704962309061127128, guid: 93c7c73ae5a75324b8d758491225eba4, type: 3}
    - {fileID: 7667323557245715885, guid: 93c7c73ae5a75324b8d758491225eba4, type: 3}
    - {fileID: 2700202082732843136, guid: 93c7c73ae5a75324b8d758491225eba4, type: 3}
    - {fileID: -6043708744646355035, guid: 93c7c73ae5a75324b8d758491225eba4, type: 3}
    - {fileID: 7708030409644964934, guid: 93c7c73ae5a75324b8d758491225eba4, type: 3}
    - {fileID: 9014514698006725208, guid: 93c7c73ae5a75324b8d758491225eba4, type: 3}
    - {fileID: 5186194980164204250, guid: 93c7c73ae5a75324b8d758491225eba4, type: 3}
    - {fileID: 6023357890614437883, guid: 93c7c73ae5a75324b8d758491225eba4, type: 3}
    - {fileID: -5217175494606383987, guid: 93c7c73ae5a75324b8d758491225eba4, type: 3}
    - {fileID: -3696452833626936702, guid: 93c7c73ae5a75324b8d758491225eba4, type: 3}
  m_AnimationClipSettings:
    serializedVersion: 2
    m_AdditiveReferencePoseClip: {fileID: 0}
    m_AdditiveReferencePoseTime: 0
    m_StartTime: 0
    m_StopTime: 1.0833334
    m_OrientationOffsetY: 0
    m_Level: 0
    m_CycleOffset: 0
    m_HasAdditiveReferencePose: 0
    m_LoopTime: 0
    m_LoopBlend: 0
    m_LoopBlendOrientation: 0
    m_LoopBlendPositionY: 0
    m_LoopBlendPositionXZ: 0
    m_KeepOriginalOrientation: 0
    m_KeepOriginalPositionY: 1
    m_KeepOriginalPositionXZ: 0
    m_HeightFromFeet: 0
    m_Mirror: 0
  m_EditorCurves: []
  m_EulerEditorCurves: []
  m_HasGenericRootTransform: 0
  m_HasMotionFloatCurves: 0
  m_Events:
  - time: 0
    functionName: PlaySound
    data: 
    objectReferenceParameter: {fileID: 0}
    floatParameter: 0
    intParameter: 0
    messageOptions: 0
