%YAML 1.1
%TAG !u! tag:unity3d.com,2011:
--- !u!74 &7400000
AnimationClip:
  m_ObjectHideFlags: 0
  m_CorrespondingSourceObject: {fileID: 0}
  m_PrefabInstance: {fileID: 0}
  m_PrefabAsset: {fileID: 0}
  m_Name: Carapeirce
  serializedVersion: 6
  m_Legacy: 0
  m_Compressed: 0
  m_UseHighQualityCurve: 1
  m_RotationCurves: []
  m_CompressedRotationCurves: []
  m_EulerCurves: []
  m_PositionCurves: []
  m_ScaleCurves: []
  m_FloatCurves: []
  m_PPtrCurves:
  - curve:
    - time: 0
      value: {fileID: -1574805168361676630, guid: 4bb997a49629d4441b5b2db78fe76222,
        type: 3}
    - time: 0.083333336
      value: {fileID: -9087579029088744799, guid: 4bb997a49629d4441b5b2db78fe76222,
        type: 3}
    - time: 0.16666667
      value: {fileID: -5599269989381562700, guid: 4bb997a49629d4441b5b2db78fe76222,
        type: 3}
    - time: 0.25
      value: {fileID: 5435037639034843480, guid: 4bb997a49629d4441b5b2db78fe76222,
        type: 3}
    - time: 0.33333334
      value: {fileID: -2387419350990495431, guid: 4bb997a49629d4441b5b2db78fe76222,
        type: 3}
    - time: 0.41666666
      value: {fileID: 115368786250499776, guid: 4bb997a49629d4441b5b2db78fe76222,
        type: 3}
    - time: 0.5
      value: {fileID: 4679512071423649707, guid: 4bb997a49629d4441b5b2db78fe76222,
        type: 3}
    - time: 0.5833333
      value: {fileID: -9174714952658788242, guid: 4bb997a49629d4441b5b2db78fe76222,
        type: 3}
    - time: 0.6666667
      value: {fileID: 3432263312360825251, guid: 4bb997a49629d4441b5b2db78fe76222,
        type: 3}
    - time: 0.75
      value: {fileID: -377682200796972850, guid: 4bb997a49629d4441b5b2db78fe76222,
        type: 3}
    - time: 0.8333333
      value: {fileID: -7830855382542515213, guid: 4bb997a49629d4441b5b2db78fe76222,
        type: 3}
    - time: 0.9166667
      value: {fileID: 6416264863029449939, guid: 4bb997a49629d4441b5b2db78fe76222,
        type: 3}
    - time: 1
      value: {fileID: 0}
    attribute: m_Sprite
    path: 
    classID: 212
    script: {fileID: 0}
  m_SampleRate: 60
  m_WrapMode: 0
  m_Bounds:
    m_Center: {x: 0, y: 0, z: 0}
    m_Extent: {x: 0, y: 0, z: 0}
  m_ClipBindingConstant:
    genericBindings:
    - serializedVersion: 2
      path: 0
      attribute: 0
      script: {fileID: 0}
      typeID: 212
      customType: 23
      isPPtrCurve: 1
    pptrCurveMapping:
    - {fileID: -1574805168361676630, guid: 4bb997a49629d4441b5b2db78fe76222, type: 3}
    - {fileID: -9087579029088744799, guid: 4bb997a49629d4441b5b2db78fe76222, type: 3}
    - {fileID: -5599269989381562700, guid: 4bb997a49629d4441b5b2db78fe76222, type: 3}
    - {fileID: 5435037639034843480, guid: 4bb997a49629d4441b5b2db78fe76222, type: 3}
    - {fileID: -2387419350990495431, guid: 4bb997a49629d4441b5b2db78fe76222, type: 3}
    - {fileID: 115368786250499776, guid: 4bb997a49629d4441b5b2db78fe76222, type: 3}
    - {fileID: 4679512071423649707, guid: 4bb997a49629d4441b5b2db78fe76222, type: 3}
    - {fileID: -9174714952658788242, guid: 4bb997a49629d4441b5b2db78fe76222, type: 3}
    - {fileID: 3432263312360825251, guid: 4bb997a49629d4441b5b2db78fe76222, type: 3}
    - {fileID: -377682200796972850, guid: 4bb997a49629d4441b5b2db78fe76222, type: 3}
    - {fileID: -7830855382542515213, guid: 4bb997a49629d4441b5b2db78fe76222, type: 3}
    - {fileID: 6416264863029449939, guid: 4bb997a49629d4441b5b2db78fe76222, type: 3}
    - {fileID: 0}
  m_AnimationClipSettings:
    serializedVersion: 2
    m_AdditiveReferencePoseClip: {fileID: 0}
    m_AdditiveReferencePoseTime: 0
    m_StartTime: 0
    m_StopTime: 1.0166667
    m_OrientationOffsetY: 0
    m_Level: 0
    m_CycleOffset: 0
    m_HasAdditiveReferencePose: 0
    m_LoopTime: 0
    m_LoopBlend: 0
    m_LoopBlendOrientation: 0
    m_LoopBlendPositionY: 0
    m_LoopBlendPositionXZ: 0
    m_KeepOriginalOrientation: 0
    m_KeepOriginalPositionY: 1
    m_KeepOriginalPositionXZ: 0
    m_HeightFromFeet: 0
    m_Mirror: 0
  m_EditorCurves: []
  m_EulerEditorCurves: []
  m_HasGenericRootTransform: 0
  m_HasMotionFloatCurves: 0
  m_Events: []
