%YAML 1.1
%TAG !u! tag:unity3d.com,2011:
--- !u!1045 &1
EditorBuildSettings:
  m_ObjectHideFlags: 0
  serializedVersion: 2
  m_Scenes:
  - enabled: 1
    path: Assets/Scenes/Demo/Menu.unity
    guid: ed4ac80952c222f47bc5dc75c698cccd
  - enabled: 0
    path: Assets/Scenes/Demo/Cinematic.unity
    guid: 9ee92b50b13982142a601c6eb3881d9a
  - enabled: 1
    path: Assets/Scenes/Demo/Tutorial Temple.unity
    guid: c00f5e53e8304194fa5c6dd4d3144aeb
  - enabled: 0
    path: Assets/Scenes/Test Scenes/WaveSystem.unity
    guid: 1e4cb51528941a046bc69c0652d8b4d2
  - enabled: 1
    path: Assets/Scenes/Demo/Swamp Arena.unity
    guid: f64c8b8793b95b4428bca9d509f30b90
  m_configObjects: {}
