%YAML 1.1
%TAG !u! tag:unity3d.com,2011:
--- !u!1386491679 &1
PresetManager:
  m_ObjectHideFlags: 0
  m_DefaultList:
  - type:
      m_NativeTypeID: 1006
      m_ManagedTypePPtr: {fileID: 0}
      m_ManagedTypeFallback: 
    defaultPresets:
    - m_Preset: {fileID: 2655988077585873504, guid: da580f2719c9d344bb5a13593f00414e,
        type: 2}
